{
  "status": "ok",
  "total_hits": 10000,
  "page": 1,
  "total_pages": 5000,
  "page_size": 2,
  "articles": [
    {
      "title": "\u00dcnl\u00fc yat\u0131r\u0131mc\u0131 Warren Buffett'tan Elon Musk yorumu",
      "author": "G\u00fclben Dikmen",
      "published_date": "2023-05-07 14:30:00",
      "published_date_precision": "timezone unknown",
      "link": "https://www.sozcu.com.tr/2023/ekonomi/unlu-yatirimci-warren-buffettten-elon-musk-yorumu-7676768/",
      "clean_url": "sozcu.com.tr",
      "excerpt": "\u00dcnl\u00fc yat\u0131r\u0131mc\u0131 Warren Buffett'tan Elon Musk yorumu - Milyarder yat\u0131r\u0131mc\u0131 Warren Buffett ve orta\u011f\u0131 Charlie Munger, Elon Musk hakk\u0131ndaki d\u00fc\u015f\u00fcncelerini a\u00e7\u0131klad\u0131. Yat\u0131r\u0131mc\u0131 ikili Musk'\u0131n a\u015f\u0131r\u0131 riskler\u2026",
      "summary": "Yay\u0131nlanma:\n 16:34 - 07 May\u0131s 2023 \n \nG\u00fcncellenme:\n \n16:54 - 07 May\u0131s 2023\n \n \n \n \n \n \n \n \n \nABD\n'li \u00fcnl\u00fc milyarder ve d\u00fcnyan\u0131n en zengin be\u015finci insan\u0131 Warren Buffet ve orta\u011f\u0131 Charlie Munger, Berkshire Hathaway'in y\u0131ll\u0131k toplant\u0131s\u0131nda Elon Musk hakk\u0131ndaki d\u00fc\u015f\u00fcncelerini a\u00e7\u0131klad\u0131.\nBuffet ve Munger, Elon Musk'\u0131n kendilerinden daha b\u00fcy\u00fck hayaller kurdu\u011funu ve \u00e7ok daha zorlu sorunlar\u0131n \u00fcstesinden geldi\u011fini s\u00f6yledi. Bunun bazen Musk'\u0131n b\u00fcy\u00fck ba\u015far\u0131lar elde etmesini sa\u011flad\u0131\u011f\u0131n\u0131 s\u00f6yleyen yat\u0131r\u0131mc\u0131lar bazen de ba\u015far\u0131z olmas\u0131na neden oldu\u011funu ifade ettiler.",
      "rights": "sozcu.com.tr",
      "rank": 17116,
      "topic": "economics",
      "country": "TR",
      "language": "tr",
      "authors": "G\u00fclben Dikmen,S\u00f6zc\u00fc",
      "media": "https://i.sozcucdn.com/wp-content/uploads/2023/05/07/depophotos_16809786-1.jpeg?w=1200&h=675&mode=crop",
      "is_opinion": false,
      "twitter_account": "@gazetesozcu",
      "_score": 24.721775,
      "_id": "53fe3d90635eea2d6fd8fd474b8eb267"
    },
    {
      "title": "Elon Musk: Why Does The Media Misrepresent Interracial Crime Stats \u2018To Such An Extreme Degree'?",
      "author": "Steve Watson",
      "published_date": "2023-05-07 04:53:07",
      "published_date_precision": "full",
      "link": "https://www.infowars.com/posts/elon-musk-why-does-the-media-misrepresent-interracial-crime-stats-to-such-an-extreme-degree",
      "clean_url": "infowars.com",
      "excerpt": "Infowars: There's a War on for your Mind!",
      "summary": "Twitter CEO Elon Musk on Saturday questioned why the media misrepresents 'the real situation' when it comes to interracial violence 'to such an extreme degree.'\n \n\n\nOdd, why would the media misrepresent the real situation to such an extreme degree?\n\u2014 Elon Musk (@elonmusk) \nMay 6, 2023\n\n\n \n \nThe media's lies are getting innocent people killed and may be inciting more anti-white violence than ever.\u00a0\n \n\n\nInterracial murders against whites have reached extreme highs in FBI data in states with high black populations.",
      "rights": "infowars.com",
      "rank": 3676,
      "topic": "news",
      "country": "US",
      "language": "en",
      "authors": "Steve Watson",
      "media": "https://api-assets.infowars.com/2023/05/musk-media-interracial-crime-statistics.jpg",
      "is_opinion": false,
      "twitter_account": null,
      "_score": 24.197664,
      "_id": "4e300fba8c8f88037270ecb284eb074a"
    }
  ],
  "user_input": {
    "q": "'Elon Musk''",
    "search_in": ["title_summary"],
    "lang": null,
    "not_lang": null,
    "countries": null,
    "not_countries": null,
    "from": "2023-05-06 00:00:00",
    "to": null,
    "ranked_only": "True",
    "from_rank": null,
    "to_rank": null,
    "sort_by": "relevancy",
    "page": 1,
    "size": 2,
    "sources": null,
    "not_sources": [],
    "topic": null,
    "published_date_precision": null
  }
}
